<?xml version="1.0" encoding="UTF-8" standalone="no"?>
<!-- Created with Inkscape (http://www.inkscape.org/) -->

<svg
   xmlns:osb="http://www.openswatchbook.org/uri/2009/osb"
   xmlns:dc="http://purl.org/dc/elements/1.1/"
   xmlns:cc="http://creativecommons.org/ns#"
   xmlns:rdf="http://www.w3.org/1999/02/22-rdf-syntax-ns#"
   xmlns:svg="http://www.w3.org/2000/svg"
   xmlns="http://www.w3.org/2000/svg"
   xmlns:xlink="http://www.w3.org/1999/xlink"
   xmlns:sodipodi="http://sodipodi.sourceforge.net/DTD/sodipodi-0.dtd"
   xmlns:inkscape="http://www.inkscape.org/namespaces/inkscape"
   width="354.33069"
   height="354.33069"
   id="svg3163"
   version="1.1"
   inkscape:version="0.48.2 r9819"
   sodipodi:docname="hisc-app-kup.svgz"
   inkscape:export-filename="/home/simon/gfx/kupanim1.png"
   inkscape:export-xdpi="8.1280003"
   inkscape:export-ydpi="8.1280003">
  <defs
     id="defs3165">
    <linearGradient
       id="linearGradient6599">
      <stop
         id="stop6601"
         offset="0"
         style="stop-color:#ffffff;stop-opacity:1;" />
      <stop
         style="stop-color:#ffffff;stop-opacity:0.78431374;"
         offset="0.66611713"
         id="stop6603" />
      <stop
         id="stop6607"
         offset="1"
         style="stop-color:#ffffff;stop-opacity:0.58823532;" />
    </linearGradient>
    <linearGradient
       id="linearGradient6583"
       osb:paint="solid">
      <stop
         style="stop-color:#4d4d4d;stop-opacity:1;"
         offset="0"
         id="stop6585" />
    </linearGradient>
    <linearGradient
       id="linearGradient3837">
      <stop
         id="stop3847"
         offset="0"
         style="stop-color:#000000;stop-opacity:1;" />
      <stop
         style="stop-color:#000000;stop-opacity:1;"
         offset="0.72814965"
         id="stop4476" />
      <stop
         style="stop-color:#dcdcdc;stop-opacity:1;"
         offset="0.86222219"
         id="stop3849" />
      <stop
         style="stop-color:#000000;stop-opacity:1;"
         offset="1"
         id="stop3841" />
    </linearGradient>
    <linearGradient
       inkscape:collect="always"
       xlink:href="#linearGradient3802"
       id="linearGradient3973"
       gradientUnits="userSpaceOnUse"
       gradientTransform="translate(6,11)"
       x1="25"
       y1="190.5"
       x2="38"
       y2="190.5" />
    <linearGradient
       id="linearGradient3802">
      <stop
         style="stop-color:#ffffff;stop-opacity:1;"
         offset="0"
         id="stop3804" />
      <stop
         id="stop3818"
         offset="0.5"
         style="stop-color:#ffffff;stop-opacity:0.78431374;" />
      <stop
         style="stop-color:#ffffff;stop-opacity:0.50980395;"
         offset="1"
         id="stop3806" />
    </linearGradient>
    <linearGradient
       inkscape:collect="always"
       xlink:href="#linearGradient3802"
       id="linearGradient3202"
       gradientUnits="userSpaceOnUse"
       gradientTransform="translate(6,11)"
       x1="25"
       y1="190.5"
       x2="38"
       y2="190.5" />
    <linearGradient
       inkscape:collect="always"
       xlink:href="#linearGradient3802"
       id="linearGradient6609"
       x1="12.023764"
       y1="874.85803"
       x2="348.76004"
       y2="870.35486"
       gradientUnits="userSpaceOnUse"
       gradientTransform="matrix(1.0164348,0,0,1.0164348,-2.9130045,-14.384989)" />
    <linearGradient
       inkscape:collect="always"
       xlink:href="#linearGradient3802"
       id="linearGradient3798"
       gradientUnits="userSpaceOnUse"
       gradientTransform="matrix(1.2207313,0,0,1.2285309,-452.92517,798.48579)"
       x1="419.3143"
       y1="-507.98602"
       x2="609.52606"
       y2="-507.98602" />
  </defs>
  <sodipodi:namedview
     id="base"
     pagecolor="#b1ac94"
     bordercolor="#666666"
     borderopacity="1.0"
     inkscape:pageopacity="0"
     inkscape:pageshadow="2"
     inkscape:zoom="1.5409334"
     inkscape:cx="177.16534"
     inkscape:cy="177.16534"
     inkscape:document-units="cm"
     inkscape:current-layer="layer1"
     showgrid="false"
     showborder="false"
     inkscape:showpageshadow="false"
     units="cm"
     inkscape:object-nodes="false"
     gridtolerance="10"
     inkscape:window-width="1280"
     inkscape:window-height="754"
     inkscape:window-x="-2"
     inkscape:window-y="43"
     inkscape:window-maximized="1"
     inkscape:snap-object-midpoints="true"
     inkscape:snap-midpoints="true"
     inkscape:snap-smooth-nodes="true"
     inkscape:object-paths="true"
     inkscape:snap-page="true"
     inkscape:snap-nodes="false"
     inkscape:snap-global="false" />
  <metadata
     id="metadata3168">
    <rdf:RDF>
      <cc:Work
         rdf:about="">
        <dc:format>image/svg+xml</dc:format>
        <dc:type
           rdf:resource="http://purl.org/dc/dcmitype/StillImage" />
        <dc:title></dc:title>
      </cc:Work>
    </rdf:RDF>
  </metadata>
  <g
     inkscape:label="Layer 1"
     inkscape:groupmode="layer"
     id="layer1"
     transform="translate(0,-698.03161)">
    <rect
       y="69.64785"
       x="29.428564"
       height="270.42856"
       width="404.71429"
       id="rect3958"
       style="opacity:0.8;fill:#000000;fill-opacity:0;stroke:none" />
    <path
       style="fill:url(#linearGradient3798);fill-opacity:1;fill-rule:nonzero;stroke:none"
       d="M 72.84375 53.25 C 61.977176 53.25 53.21875 62.008426 53.21875 72.875 L 53.21875 281.75 C 53.21875 292.61657 61.977176 301.375 72.84375 301.375 L 281.59375 301.375 C 292.46032 301.375 301.1875 292.61657 301.1875 281.75 L 301.1875 72.875 C 301.1875 62.008426 292.46032 53.25 281.59375 53.25 L 72.84375 53.25 z M 247.8125 90.8125 C 251.25317 90.82419 254.60446 91.91696 257 94.3125 C 262.47553 99.78806 261.03802 110.02448 255.5625 115.5 L 240.03125 131.03125 C 240.59938 131.85646 241.15592 132.68867 241.6875 133.53125 C 242.21261 134.36358 242.72931 135.21434 243.21875 136.0625 C 244.20721 137.77542 245.12577 139.51061 245.96875 141.28125 C 251.02658 151.90501 253.46082 163.45376 253.28125 175 C 253.26634 175.95842 253.23849 176.91761 253.1875 177.875 C 253.08551 179.78983 252.90259 181.7211 252.65625 183.625 C 252.53167 184.58787 252.38026 185.54167 252.21875 186.5 C 252.05802 187.45369 251.88479 188.39571 251.6875 189.34375 C 251.5164 190.16594 251.35485 190.99538 251.15625 191.8125 C 251.12809 191.92845 251.09121 192.04041 251.0625 192.15625 C 250.5957 194.03828 250.05047 195.90208 249.4375 197.75 C 249.15221 198.61006 248.8482 199.4613 248.53125 200.3125 C 248.50828 200.37427 248.49189 200.43827 248.46875 200.5 C 248.45247 200.54336 248.42261 200.58166 248.40625 200.625 C 247.39116 203.31425 246.23825 205.95117 244.90625 208.53125 C 244.46682 209.38243 244.00518 210.22534 243.53125 211.0625 C 243.51975 211.08283 243.51152 211.10468 243.5 211.125 C 243.49551 211.13292 243.50449 211.14834 243.5 211.15625 C 243.02039 212.00089 242.48351 212.82701 241.96875 213.65625 C 241.44249 214.504 240.90675 215.357 240.34375 216.1875 C 239.78394 217.01331 239.25239 217.84865 238.65625 218.65625 L 257.34375 237.34375 C 262.89441 242.65672 264.21437 252.94189 258.78125 258.375 C 253.34814 263.80809 243.15187 262.37059 237.71875 256.9375 L 218.3125 237.5625 C 217.64378 237.9855 216.96031 238.41255 216.28125 238.8125 C 216.15733 238.8855 216.0305 238.95902 215.90625 239.03125 C 215.41379 239.31745 214.9038 239.56961 214.40625 239.84375 C 214.09061 240.01768 213.78637 240.20592 213.46875 240.375 C 212.72509 240.7709 211.97274 241.1307 211.21875 241.5 C 211.14311 241.53704 211.07574 241.58823 211 241.625 C 210.94957 241.64949 210.89422 241.66313 210.84375 241.6875 C 210.22912 241.98427 209.62095 242.28332 209 242.5625 C 208.82315 242.64204 208.64609 242.73439 208.46875 242.8125 C 207.76307 243.12314 207.05688 243.43071 206.34375 243.71875 C 205.35499 244.11811 204.34552 244.48786 203.34375 244.84375 C 203.28176 244.86576 203.21828 244.8844 203.15625 244.90625 C 202.35335 245.18911 201.56032 245.46377 200.75 245.71875 C 200.31194 245.85657 199.87756 245.99533 199.4375 246.125 C 198.99549 246.25536 198.53766 246.37786 198.09375 246.5 C 197.76281 246.59092 197.42568 246.66364 197.09375 246.75 C 196.5441 246.893 195.98969 247.02577 195.4375 247.15625 C 194.7277 247.32418 194.02605 247.47777 193.3125 247.625 C 193.13471 247.66167 192.95925 247.71461 192.78125 247.75 C 192.43863 247.81812 192.09337 247.87414 191.75 247.9375 C 190.78543 248.11549 189.81342 248.29708 188.84375 248.4375 C 188.81331 248.44191 188.78044 248.43313 188.75 248.4375 C 188.70797 248.44353 188.66703 248.46279 188.625 248.46875 C 187.81371 248.58384 187.00152 248.66119 186.1875 248.75 C 185.68674 248.80461 185.18907 248.86158 184.6875 248.90625 C 183.78371 248.98674 182.87445 249.04553 181.96875 249.09375 C 181.06174 249.14188 180.15797 249.17175 179.25 249.1875 C 179.20834 249.18823 179.16666 249.18684 179.125 249.1875 C 178.31212 249.20047 177.50038 249.20047 176.6875 249.1875 C 175.71837 249.17204 174.7493 249.14608 173.78125 249.09375 C 172.87427 249.04474 171.96754 248.98764 171.0625 248.90625 C 170.70679 248.87428 170.35531 248.81822 170 248.78125 C 169.12103 248.68965 168.25088 248.59096 167.375 248.46875 C 166.31387 248.3207 165.24265 248.16173 164.1875 247.96875 C 163.89655 247.91557 163.60292 247.86909 163.3125 247.8125 C 162.26188 247.60761 161.23018 247.3746 160.1875 247.125 C 159.51808 246.96505 158.85312 246.77212 158.1875 246.59375 C 157.97057 246.53552 157.74774 246.49769 157.53125 246.4375 C 156.69254 246.20472 155.86294 245.94963 155.03125 245.6875 C 154.32646 245.46501 153.60545 245.24358 152.90625 245 C 152.73837 244.94155 152.57379 244.87217 152.40625 244.8125 C 151.54174 244.50447 150.69862 244.18415 149.84375 243.84375 C 149.22376 243.59712 148.61448 243.32615 148 243.0625 C 147.63597 242.90622 147.26824 242.75601 146.90625 242.59375 C 146.19127 242.27343 145.48784 241.93738 144.78125 241.59375 C 143.94265 241.18593 143.10712 240.7844 142.28125 240.34375 C 141.46108 239.90623 140.65042 239.43864 139.84375 238.96875 C 139.40655 238.714 138.96426 238.45176 138.53125 238.1875 C 137.88746 237.79463 137.25912 237.38264 136.625 236.96875 C 136.35901 236.7952 136.07672 236.646 135.8125 236.46875 C 135.56957 236.30573 135.33515 236.1349 135.09375 235.96875 L 115.21875 255.8125 C 109.87227 261.41413 99.538017 262.72549 94.0625 257.25 C 88.58697 251.77445 89.993219 241.53803 95.46875 236.0625 L 115.40625 216.125 C 115.30891 215.98102 115.22123 215.83201 115.125 215.6875 C 114.97133 215.45679 114.80711 215.23204 114.65625 215 C 114.2398 214.35925 113.83251 213.71306 113.4375 213.0625 C 113.10127 212.50912 112.78947 211.93514 112.46875 211.375 C 112.00182 210.55881 111.52775 209.7672 111.09375 208.9375 C 110.80691 208.39 110.55375 207.83429 110.28125 207.28125 C 110.11808 206.94986 109.93927 206.61454 109.78125 206.28125 C 109.41851 205.51639 109.08562 204.74311 108.75 203.96875 C 108.41709 203.20064 108.08748 202.43299 107.78125 201.65625 C 107.56901 201.11759 107.38691 200.57377 107.1875 200.03125 C 107.04529 199.64469 106.88569 199.26341 106.75 198.875 C 106.74239 198.8532 106.72634 198.8343 106.71875 198.8125 C 106.426 197.97201 106.16851 197.12974 105.90625 196.28125 C 105.63711 195.41052 105.39328 194.53448 105.15625 193.65625 C 104.98989 193.03946 104.80677 192.43259 104.65625 191.8125 C 104.62346 191.6776 104.59454 191.5413 104.5625 191.40625 C 104.36297 190.56402 104.17038 189.72245 104 188.875 C 103.96661 188.70927 103.93852 188.54091 103.90625 188.375 C 103.89813 188.33316 103.88305 188.29185 103.875 188.25 C 103.79666 187.84361 103.75915 187.43865 103.6875 187.03125 C 103.58721 186.4603 103.46216 185.88523 103.375 185.3125 C 103.29924 184.81456 103.25334 184.3116 103.1875 183.8125 C 103.1105 183.22898 103.03218 182.64737 102.96875 182.0625 C 102.91695 181.58539 102.85527 181.10285 102.8125 180.625 C 102.7733 180.18591 102.75033 179.7521 102.71875 179.3125 C 102.61297 177.8468 102.55229 176.375 102.53125 174.90625 C 102.52031 174.1423 102.51927 173.38894 102.53125 172.625 C 102.53627 172.31233 102.55364 172.0001 102.5625 171.6875 C 102.5831 170.95396 102.6145 170.23279 102.65625 169.5 C 102.7075 168.5992 102.76056 167.71132 102.84375 166.8125 C 102.92723 165.90922 103.0405 164.99407 103.15625 164.09375 C 103.26094 163.27944 103.3689 162.4674 103.5 161.65625 C 103.52711 161.48875 103.56551 161.3236 103.59375 161.15625 C 103.72978 160.3491 103.86903 159.55316 104.03125 158.75 C 104.3649 157.0981 104.74306 155.443 105.1875 153.8125 C 105.23614 153.63405 105.29378 153.4594 105.34375 153.28125 C 105.54588 152.56052 105.7449 151.84054 105.96875 151.125 C 106.04467 150.88219 106.14033 150.64842 106.21875 150.40625 C 106.44961 149.69368 106.68498 148.98795 106.9375 148.28125 C 107.55124 146.56362 108.22709 144.86507 108.96875 143.1875 C 109.32501 142.38168 109.67673 141.57654 110.0625 140.78125 C 110.10912 140.68511 110.1717 140.59598 110.21875 140.5 C 110.5944 139.73399 110.97187 138.97409 111.375 138.21875 C 111.80951 137.40403 112.28356 136.58266 112.75 135.78125 C 113.09839 135.1835 113.47757 134.58988 113.84375 134 C 113.96494 133.80461 114.06436 133.60075 114.1875 133.40625 L 97.65625 116.875 C 92.223125 111.44187 90.816881 101.27687 96.25 95.84375 C 101.68309 90.41065 111.81688 91.81688 117.25 97.25 L 133.09375 113.09375 C 133.41444 112.85723 133.73888 112.63705 134.0625 112.40625 C 134.81543 111.86917 135.57562 111.34984 136.34375 110.84375 C 137.31121 110.20633 138.2913 109.58825 139.28125 109 C 139.47757 108.88333 139.67783 108.77099 139.875 108.65625 C 140.7976 108.11935 141.71608 107.58831 142.65625 107.09375 C 142.69731 107.07214 142.74015 107.05278 142.78125 107.03125 C 143.85416 106.46943 144.93759 105.94426 146.03125 105.4375 C 146.12459 105.39424 146.21902 105.35536 146.3125 105.3125 C 147.2149 104.89887 148.11621 104.50126 149.03125 104.125 C 149.43452 103.95912 149.84444 103.81487 150.25 103.65625 C 150.84258 103.42461 151.43406 103.1849 152.03125 102.96875 C 152.50763 102.79624 152.98962 102.6314 153.46875 102.46875 C 154.44323 102.13802 155.42139 101.8212 156.40625 101.53125 C 156.46985 101.51251 156.53011 101.48732 156.59375 101.46875 C 157.6918 101.1486 158.79721 100.86326 159.90625 100.59375 C 159.92818 100.58842 159.94682 100.56781 159.96875 100.5625 C 161.04507 100.30196 162.13387 100.08787 163.21875 99.875 C 163.41695 99.836103 163.61405 99.787306 163.8125 99.75 C 164.89235 99.547097 165.9762 99.374538 167.0625 99.21875 C 168.16616 99.060473 169.26645 98.922146 170.375 98.8125 C 170.58345 98.791854 170.79141 98.768926 171 98.75 C 172.08894 98.651323 173.18962 98.583063 174.28125 98.53125 C 175.49232 98.473768 176.69404 98.437303 177.90625 98.4375 C 179.03809 98.437684 180.1816 98.480783 181.3125 98.53125 C 181.38534 98.534502 181.45842 98.52779 181.53125 98.53125 C 181.73878 98.541103 181.9488 98.550953 182.15625 98.5625 C 182.65632 98.59036 183.15671 98.649795 183.65625 98.6875 C 184.10632 98.721505 184.5505 98.739257 185 98.78125 C 185.05167 98.786068 185.10458 98.776327 185.15625 98.78125 C 186.05623 98.867179 186.94679 98.975789 187.84375 99.09375 C 188.07379 99.123961 188.30145 99.155182 188.53125 99.1875 C 188.66681 99.206584 188.80203 99.230183 188.9375 99.25 C 189.91654 99.393214 190.90122 99.568496 191.875 99.75 C 192.42256 99.85206 192.98566 99.948334 193.53125 100.0625 C 194.1681 100.19581 194.80365 100.35019 195.4375 100.5 C 195.59407 100.53704 195.74988 100.5557 195.90625 100.59375 C 195.92592 100.59853 195.94908 100.58895 195.96875 100.59375 C 197.01778 100.84989 198.05454 101.13605 199.09375 101.4375 C 199.16716 101.45879 199.23914 101.47849 199.3125 101.5 C 200.16368 101.74966 201.03146 102.03239 201.875 102.3125 C 201.99012 102.35075 202.10378 102.39869 202.21875 102.4375 C 202.92878 102.67719 203.63981 102.92618 204.34375 103.1875 C 204.42753 103.21861 204.51006 103.24984 204.59375 103.28125 C 204.65541 103.30439 204.71964 103.32044 204.78125 103.34375 C 205.60751 103.6563 206.43311 103.97004 207.25 104.3125 C 207.26254 104.31776 207.26871 104.33848 207.28125 104.34375 C 207.36703 104.37976 207.44558 104.43241 207.53125 104.46875 C 209.23144 105.19041 210.9405 105.96088 212.59375 106.8125 C 212.627 106.82964 212.65427 106.85781 212.6875 106.875 C 213.05866 107.0669 213.4127 107.27029 213.78125 107.46875 C 214.51989 107.86651 215.24115 108.2634 215.96875 108.6875 C 216.1743 108.80731 216.38912 108.90934 216.59375 109.03125 C 217.54169 109.596 218.47896 110.20264 219.40625 110.8125 C 219.66324 110.98152 219.93217 111.14002 220.1875 111.3125 L 235.78125 95.71875 C 238.78784 92.56709 243.38878 90.7975 247.8125 90.8125 z M 177.90625 123.0625 C 176.63998 123.0625 175.38787 123.12216 174.125 123.21875 C 173.63472 123.25625 173.14545 123.29174 172.65625 123.34375 C 172.07315 123.40575 171.48732 123.47992 170.90625 123.5625 C 170.45809 123.62553 170.0092 123.70607 169.5625 123.78125 C 169.3958 123.80956 169.22897 123.84499 169.0625 123.875 C 168.51651 123.97344 167.98071 124.07079 167.4375 124.1875 C 166.2867 124.43474 165.13516 124.70225 164 125.03125 C 163.43242 125.19575 162.87537 125.37762 162.3125 125.5625 C 161.93486 125.68572 161.5628 125.80511 161.1875 125.9375 C 160.99886 126.00439 160.81303 126.08705 160.625 126.15625 C 159.50977 126.56668 158.40349 127.00847 157.3125 127.5 C 156.22151 127.99153 155.12496 128.52145 154.0625 129.09375 C 153.00004 129.66605 151.96713 130.28476 150.9375 130.9375 L 175.75 155.75 L 202.1875 129.3125 C 201.93914 129.17591 201.68758 129.03838 201.4375 128.90625 C 201.21004 128.78604 200.97884 128.679 200.75 128.5625 C 200.23867 128.30211 199.73661 128.02322 199.21875 127.78125 C 198.76548 127.56961 198.30167 127.38495 197.84375 127.1875 C 197.40638 126.99863 196.97258 126.83222 196.53125 126.65625 C 196.47859 126.63528 196.42771 126.61453 196.375 126.59375 C 195.6275 126.2986 194.88266 126.00817 194.125 125.75 C 193.87676 125.66563 193.62423 125.58039 193.375 125.5 C 193.30246 125.47652 193.22887 125.46064 193.15625 125.4375 C 192.39854 125.19601 191.64085 124.98603 190.875 124.78125 C 190.6974 124.73389 190.52173 124.67038 190.34375 124.625 C 190.20824 124.59036 190.07323 124.56475 189.9375 124.53125 C 189.05331 124.31355 188.17347 124.10656 187.28125 123.9375 C 187.01299 123.88656 186.73763 123.85903 186.46875 123.8125 C 185.70407 123.68016 184.92501 123.56543 184.15625 123.46875 C 183.24166 123.35373 182.32463 123.25196 181.40625 123.1875 C 180.23787 123.10549 179.0768 123.0625 177.90625 123.0625 z M 222.09375 148.96875 L 195.53125 175.53125 L 220.8125 200.8125 C 221.7493 199.33443 222.60637 197.82634 223.375 196.28125 C 223.56507 195.89916 223.75771 195.51068 223.9375 195.125 C 224.00104 194.9888 224.06274 194.85538 224.125 194.71875 C 224.16813 194.62406 224.20749 194.53239 224.25 194.4375 C 224.66236 193.51705 225.05185 192.59439 225.40625 191.65625 C 225.41784 191.62558 225.42597 191.59319 225.4375 191.5625 C 225.449 191.53187 225.45731 191.49939 225.46875 191.46875 C 225.65639 190.96613 225.82896 190.44455 226 189.9375 C 227.63324 185.09586 228.50502 180.07956 228.625 175.03125 C 228.66499 173.34848 228.62813 171.64805 228.5 169.96875 C 228.45729 169.40898 228.40514 168.8709 228.34375 168.3125 C 228.03681 165.52049 227.49265 162.75244 226.71875 160.03125 C 226.56397 159.48701 226.39221 158.91494 226.21875 158.375 C 226.07998 157.94305 225.96322 157.52267 225.8125 157.09375 C 225.77548 156.98855 225.72524 156.88626 225.6875 156.78125 C 225.30323 155.71096 224.86522 154.64195 224.40625 153.59375 C 224.25131 153.23991 224.10095 152.88227 223.9375 152.53125 C 223.85937 152.36377 223.76757 152.19807 223.6875 152.03125 C 223.43934 151.51341 223.20434 151.01109 222.9375 150.5 C 222.67066 149.98891 222.37926 149.4726 222.09375 148.96875 z M 132.375 151.59375 C 132.22168 151.90542 132.05275 152.21722 131.90625 152.53125 C 131.55655 153.28084 131.21709 154.01924 130.90625 154.78125 C 130.6999 155.28715 130.5329 155.8017 130.34375 156.3125 C 130.2387 156.59589 130.09977 156.87145 130 157.15625 C 129.99678 157.16546 130.00322 157.17829 130 157.1875 C 129.74043 157.92983 129.50502 158.68644 129.28125 159.4375 C 129.11061 160.01023 128.96232 160.57911 128.8125 161.15625 C 128.68474 161.64938 128.55 162.12906 128.4375 162.625 C 128.38989 162.83486 128.32613 163.03968 128.28125 163.25 C 128.11172 164.04453 127.97432 164.8561 127.84375 165.65625 C 127.81817 165.81302 127.77409 165.96805 127.75 166.125 C 127.62546 166.93651 127.55334 167.74701 127.46875 168.5625 C 127.45565 168.68876 127.41839 168.81116 127.40625 168.9375 C 127.40525 168.94782 127.40725 168.95843 127.40625 168.96875 C 127.40231 169.01006 127.41009 169.05244 127.40625 169.09375 C 127.31851 170.0375 127.25309 170.99105 127.21875 171.9375 C 127.18867 172.73763 127.17951 173.54321 127.1875 174.34375 C 127.19108 174.65727 127.20932 174.96782 127.21875 175.28125 C 127.24435 176.13241 127.27503 176.96316 127.34375 177.8125 C 127.34795 177.86436 127.33939 177.9169 127.34375 177.96875 C 127.50943 179.9405 127.78955 181.92882 128.1875 183.875 C 128.38854 184.8582 128.64598 185.8399 128.90625 186.8125 C 129.16132 187.76563 129.43808 188.68465 129.75 189.625 C 129.75941 189.65338 129.74053 189.69038 129.75 189.71875 C 130.38701 191.62781 131.15991 193.50384 132.03125 195.34375 C 132.46901 196.26812 132.94064 197.19092 133.4375 198.09375 L 156.15625 175.375 L 132.375 151.59375 z M 175.90625 195.15625 L 153.03125 218 C 153.13316 218.05786 153.24153 218.09915 153.34375 218.15625 C 153.91241 218.4739 154.48488 218.76857 155.0625 219.0625 C 155.55024 219.31086 156.03756 219.58102 156.53125 219.8125 C 156.56059 219.82625 156.59564 219.83005 156.625 219.84375 C 157.28477 220.15108 157.95557 220.44157 158.625 220.71875 C 159.57757 221.11317 160.5303 221.47911 161.5 221.8125 C 162.4697 222.14589 163.45355 222.44637 164.4375 222.71875 C 165.41172 222.98843 166.3896 223.25886 167.375 223.46875 C 167.39492 223.473 167.41758 223.46452 167.4375 223.46875 C 169.29579 223.86221 171.17892 224.16279 173.0625 224.34375 C 173.21735 224.35868 173.37629 224.3615 173.53125 224.375 C 174.50977 224.45985 175.48764 224.50365 176.46875 224.53125 C 177.48108 224.55973 178.48774 224.5637 179.5 224.53125 C 183.54905 224.40143 187.59788 223.79167 191.53125 222.6875 C 193.49793 222.13541 195.44037 221.45174 197.34375 220.65625 C 198.29544 220.2585 199.22468 219.83357 200.15625 219.375 L 175.90625 195.15625 z "
       transform="translate(0,698.03161)"
       id="rect4069" />
    <path
       inkscape:connector-curvature="0"
       id="path4073"
       d="m 269.18633,714.54537 c -65.69538,0.60764 -131.49656,-0.72505 -197.145932,0.70735 -33.806277,4.49948 -59.275312,38.6592 -54.950102,72.45184 0.53118,64.65671 -1.221856,129.43092 0.939603,194.01347 5.108519,33.89807 40.168933,58.05587 73.714944,53.38367 64.117327,-0.5434 128.353397,1.2463 192.396707,-0.9394 33.87037,-5.1187 58.0013,-40.01448 53.38366,-73.71495 -0.54278,-64.13445 1.24555,-128.38564 -0.93941,-192.44723 -4.92769,-31.44741 -35.79883,-55.58941 -67.39947,-53.45475 z"
       style="fill:none;stroke:#383838;stroke-width:0;stroke-miterlimit:4;stroke-opacity:1;stroke-dasharray:none" />
    <rect
       style="fill:none;stroke:#000000;stroke-width:11.17183876;stroke-miterlimit:4;stroke-opacity:0.39215686;stroke-dasharray:none"
       id="rect3830"
       width="343.23746"
       height="343.23746"
       x="5.6277771"
       y="703.65936"
       rx="67.443039"
       ry="67.443039" />
    <rect
       ry="45.636883"
       rx="45.636883"
       y="725.08105"
       x="27.049473"
       height="300.39404"
       width="300.39404"
       id="rect5129"
       style="fill:none;stroke:url(#linearGradient6609);stroke-width:30.98261642;stroke-miterlimit:4;stroke-opacity:0.8627451;stroke-dasharray:none" />
    <rect
       ry="25.667141"
       rx="25.667141"
       y="745.8656"
       x="47.833912"
       height="258.8252"
       width="258.8252"
       id="rect5127"
       style="fill:none;stroke:#000000;stroke-width:10.93005466;stroke-miterlimit:4;stroke-opacity:0.39215686;stroke-dasharray:none" />
    <path
       style="font-size:medium;font-style:normal;font-variant:normal;font-weight:normal;font-stretch:normal;text-indent:0;text-align:start;text-decoration:none;line-height:normal;letter-spacing:normal;word-spacing:normal;text-transform:none;direction:ltr;block-progression:tb;writing-mode:lr-tb;text-anchor:start;baseline-shift:baseline;color:#000000;fill:#000000;fill-opacity:0.39215686;stroke:none;stroke-width:21.49433899;marker:none;visibility:visible;display:inline;overflow:visible;enable-background:accumulate;font-family:Sans;-inkscape-font-specification:Sans"
       d="m 247.8125,788.84411 c -4.42372,-0.015 -9.02466,1.75459 -12.03125,4.90625 L 220.1875,809.34411 C 193.92197,791.6008 158.763,792.19168 133.09375,811.12536 L 117.25,795.28161 c -5.43312,-5.43312 -15.56691,-6.83935 -21,-1.40625 -5.433119,5.43312 -4.026875,15.59812 1.40625,21.03125 l 16.53125,16.53125 c -15.947771,25.18912 -15.548024,57.91709 1.21875,82.71875 l -19.9375,19.9375 c -5.475531,5.47553 -6.88178,15.71195 -1.40625,21.1875 5.475517,5.47549 15.80977,4.16413 21.15625,-1.4375 l 19.875,-19.84375 c 24.85745,17.10833 57.85681,17.64286 83.21875,1.59375 l 19.40625,19.375 c 5.43312,5.43309 15.62939,6.87059 21.0625,1.4375 5.43312,-5.43311 4.11316,-15.71828 -1.4375,-21.03125 L 238.625,916.65661 c 19.0628,-25.8443 19.52239,-61.27201 1.40625,-87.59375 l 15.53125,-15.53125 c 5.47552,-5.47552 6.91303,-15.71194 1.4375,-21.1875 -2.39554,-2.39554 -5.74683,-3.48831 -9.1875,-3.5 z m -69.90625,32.25 c 8.36256,0 16.7265,2.09531 24.28125,6.25 l -26.4375,26.4375 -24.8125,-24.8125 c 8.23704,-5.22196 17.59342,-7.875 26.96875,-7.875 z m 44.1875,25.90625 c 9.13641,16.12327 8.7113,36.07766 -1.28125,51.84375 l -25.28125,-25.28125 26.5625,-26.5625 z m -89.75,2.59375 23.8125,23.8125 -22.71875,22.71875 c -7.94974,-14.44522 -8.33747,-31.82352 -1.09375,-46.53125 z m 43.5625,43.59375 24.25,24.21875 c -14.90507,7.33719 -32.56927,6.88936 -47.125,-1.375 l 22.875,-22.84375 z"
       id="path3796"
       inkscape:connector-curvature="0" />
  </g>
</svg>
